{
  "_class": "group",
  "do_objectID": "13331FF7-01EE-446D-89E6-C2851E287E41",
  "exportOptions": {
    "_class": "exportOptions",
    "exportFormats": [
    ],
    "includedLayerIds": [
    ],
    "layerOptions": 0,
    "shouldTrim": false
  },
  "frame": {
    "_class": "rect",
    "constrainProportions": false,
    "height": 28,
    "width": 96,
    "x": 0.5,
    "y": 0
  },
  "hasClickThrough": false,
  "isFlippedHorizontal": false,
  "isFlippedVertical": false,
  "isLocked": false,
  "isVisible": false,
  "layerListExpandedType": 0,
  "layers": [
    {
      "class": "shapeGroup",
      "id": "2F8991C1-E27F-49FE-A0F1-191C02A5E4FA"
    },
    {
      "class": "shapeGroup",
      "id": "02C9A42D-F77B-4F0F-900E-62554BF072D1"
    },
    {
      "class": "text",
      "id": "EFD506A7-F4C1-4F37-98FC-8B955B83F5F3"
    }
  ],
  "name": "global-components/tooltips/top",
  "nameIsFixed": false,
  "resizingConstraint": 63,
  "resizingType": 0,
  "rotation": 0,
  "shouldBreakMaskChain": false,
  "style": {
    "_class": "style",
    "endDecorationType": 0,
    "miterLimit": 10,
    "startDecorationType": 0
  }
}