{
  "_class": "group",
  "do_objectID": "E148F89B-A0EB-40AC-B023-0307B7012879",
  "exportOptions": {
    "_class": "exportOptions",
    "exportFormats": [
    ],
    "includedLayerIds": [
    ],
    "layerOptions": 0,
    "shouldTrim": false
  },
  "frame": {
    "_class": "rect",
    "constrainProportions": false,
    "height": 760,
    "width": 290,
    "x": 1210,
    "y": 165
  },
  "hasClickThrough": false,
  "isFlippedHorizontal": false,
  "isFlippedVertical": false,
  "isLocked": false,
  "isVisible": false,
  "layerListExpandedType": 1,
  "layers": [
    {
      "class": "shapeGroup",
      "id": "A4D4847B-292F-4F63-B35C-7D7C468199CF"
    },
    {
      "class": "group",
      "id": "B6166E2E-9E9B-4A44-B0CE-36E8FF8A4C01"
    }
  ],
  "name": "issuable__sidebar--expanded",
  "nameIsFixed": true,
  "resizingConstraint": 63,
  "resizingType": 0,
  "rotation": 0,
  "shouldBreakMaskChain": false,
  "style": {
    "_class": "style",
    "endDecorationType": 0,
    "miterLimit": 10,
    "startDecorationType": 0
  }
}