{
  "_class": "group",
  "do_objectID": "A90CF0BD-5B1E-4519-BE18-43DB0BD8815C",
  "exportOptions": {
    "_class": "exportOptions",
    "exportFormats": [
    ],
    "includedLayerIds": [
    ],
    "layerOptions": 0,
    "shouldTrim": false
  },
  "frame": {
    "_class": "rect",
    "constrainProportions": false,
    "height": 53,
    "width": 82,
    "x": 169.6290050590219,
    "y": 0
  },
  "hasClickThrough": false,
  "isFlippedHorizontal": false,
  "isFlippedVertical": false,
  "isLocked": false,
  "isVisible": true,
  "layerListExpandedType": 0,
  "layers": [
    {
      "class": "shapeGroup",
      "id": "BC23773C-C609-4B30-9C05-3153C580D032"
    },
    {
      "class": "shapeGroup",
      "id": "F976ADFC-D237-4871-8F18-F933C7CD1DB8"
    },
    {
      "class": "group",
      "id": "15BADC45-83E0-4A65-AFBE-F3DA8A103E4E"
    },
    {
      "class": "text",
      "id": "A5546BD6-5293-4B92-9D9F-A081EDEB6461"
    }
  ],
  "name": "tab-pipelines",
  "nameIsFixed": true,
  "resizingConstraint": 63,
  "resizingType": 0,
  "rotation": 0,
  "shouldBreakMaskChain": false,
  "style": {
    "_class": "style",
    "endDecorationType": 0,
    "miterLimit": 10,
    "startDecorationType": 0
  }
}