<?xml version="1.0" encoding="UTF-8"?>
<svg width="16px" height="16px" viewBox="0 0 16 16" version="1.1" xmlns="http://www.w3.org/2000/svg" xmlns:xlink="http://www.w3.org/1999/xlink">
    <!-- Generator: Sketch 58 (84663) - https://sketch.com -->
    <title>icn/angle-left</title>
    <desc>Created with Sketch.</desc>
    <g id="icn/angle-left" stroke="none" stroke-width="1" fill="none" fill-rule="evenodd">
        <path d="M10.707085,3.70711 C11.097605,3.31658 11.097605,2.68342 10.707085,2.29289 C10.316555,1.90237 9.683395,1.90237 9.292865,2.29289 L4.292875,7.29289 C3.902375,7.68342 3.902375,8.31658 4.292875,8.70711 L9.292865,13.7071 C9.683395,14.0976 10.316555,14.0976 10.707085,13.7071 C11.097605,13.3166 11.097605,12.6834 10.707085,12.2929 L6.414185,8 L10.707085,3.70711 Z" id="icon" fill="#000000"></path>
    </g>
</svg>