{
  "_class": "shapePath",
  "booleanOperation": -1,
  "do_objectID": "93008899-5CD0-4C96-A83D-4C5FB45477F3",
  "edited": true,
  "exportOptions": {
    "_class": "exportOptions",
    "exportFormats": [
    ],
    "includedLayerIds": [
    ],
    "layerOptions": 0,
    "shouldTrim": false
  },
  "frame": {
    "_class": "rect",
    "constrainProportions": false,
    "height": 746.0399780273438,
    "width": 2.000000000000057,
    "x": 5.684341886080801e-14,
    "y": 0
  },
  "isFlippedHorizontal": false,
  "isFlippedVertical": false,
  "isLocked": false,
  "isVisible": true,
  "layerListExpandedType": 0,
  "name": "Path",
  "nameIsFixed": false,
  "path": {
    "_class": "path",
    "isClosed": false,
    "pointRadiusBehaviour": 1,
    "points": [
      {
        "_class": "curvePoint",
        "cornerRadius": 0,
        "curveFrom": "{0.74999999999997868, 0.00067020537065866717}",
        "curveMode": 1,
        "curveTo": "{0.74999999999997868, 0.00067020537065866717}",
        "hasCurveFrom": false,
        "hasCurveTo": false,
        "point": "{0.49999999999998579, 0}"
      },
      {
        "_class": "curvePoint",
        "cornerRadius": 0,
        "curveFrom": "{1.2499999999999645, 0.0020106161119760012}",
        "curveMode": 1,
        "curveTo": "{1.2499999999999645, 0.0020106161119760012}",
        "hasCurveFrom": false,
        "hasCurveTo": false,
        "point": "{0.50000000000001421, 1}"
      }
    ]
  },
  "resizingConstraint": 63,
  "resizingType": 0,
  "rotation": 0,
  "shouldBreakMaskChain": false
}