{
  "_class": "shapePath",
  "booleanOperation": -1,
  "do_objectID": "F44A7A6E-51B0-4456-AEB9-E90F7F192104",
  "edited": true,
  "exportOptions": {
    "_class": "exportOptions",
    "exportFormats": [
    ],
    "includedLayerIds": [
    ],
    "layerOptions": 0,
    "shouldTrim": false
  },
  "frame": {
    "_class": "rect",
    "constrainProportions": false,
    "height": 12,
    "width": 16,
    "x": 0,
    "y": 3.999918147759528
  },
  "isFlippedHorizontal": false,
  "isFlippedVertical": false,
  "isLocked": false,
  "isVisible": true,
  "layerListExpandedType": 0,
  "name": "Path",
  "nameIsFixed": false,
  "path": {
    "_class": "path",
    "isClosed": true,
    "pointRadiusBehaviour": 1,
    "points": [
      {
        "_class": "curvePoint",
        "cornerRadius": 0,
        "curveFrom": "{0, 0}",
        "curveMode": 1,
        "curveTo": "{0, 0}",
        "hasCurveFrom": false,
        "hasCurveTo": false,
        "point": "{0, 0}"
      },
      {
        "_class": "curvePoint",
        "cornerRadius": 0,
        "curveFrom": "{1, 0}",
        "curveMode": 1,
        "curveTo": "{1, 0}",
        "hasCurveFrom": false,
        "hasCurveTo": false,
        "point": "{1, 0}"
      },
      {
        "_class": "curvePoint",
        "cornerRadius": 0,
        "curveFrom": "{1, 0.88807118745769842}",
        "curveMode": 4,
        "curveTo": "{1, 0.75000000000000011}",
        "hasCurveFrom": true,
        "hasCurveTo": false,
        "point": "{1, 0.75000000000000011}"
      },
      {
        "_class": "curvePoint",
        "cornerRadius": 0,
        "curveFrom": "{0.8125, 1}",
        "curveMode": 4,
        "curveTo": "{0.91605339059327373, 1}",
        "hasCurveFrom": false,
        "hasCurveTo": true,
        "point": "{0.8125, 1}"
      },
      {
        "_class": "curvePoint",
        "cornerRadius": 0,
        "curveFrom": "{0.083946609406726241, 1}",
        "curveMode": 4,
        "curveTo": "{0.1875, 1}",
        "hasCurveFrom": true,
        "hasCurveTo": false,
        "point": "{0.1875, 1}"
      },
      {
        "_class": "curvePoint",
        "cornerRadius": 0,
        "curveFrom": "{0, 0.75000000000000011}",
        "curveMode": 4,
        "curveTo": "{1.2681632833090834e-17, 0.88807118745769842}",
        "hasCurveFrom": false,
        "hasCurveTo": true,
        "point": "{0, 0.75000000000000011}"
      }
    ]
  },
  "resizingConstraint": 63,
  "resizingType": 0,
  "rotation": 0,
  "shouldBreakMaskChain": false
}