{
  "_class": "group",
  "do_objectID": "07DB0FF3-5FF6-4CFB-9270-889F077A0DE5",
  "exportOptions": {
    "_class": "exportOptions",
    "exportFormats": [
    ],
    "includedLayerIds": [
    ],
    "layerOptions": 0,
    "shouldTrim": false
  },
  "frame": {
    "_class": "rect",
    "constrainProportions": false,
    "height": 28,
    "width": 527,
    "x": 607,
    "y": 1062
  },
  "hasClickThrough": false,
  "isFlippedHorizontal": false,
  "isFlippedVertical": false,
  "isLocked": false,
  "isVisible": true,
  "layerListExpandedType": 2,
  "layers": [
    {
      "class": "shapeGroup",
      "id": "17974901-9E79-4404-AA68-03CF200EDAF2"
    },
    {
      "class": "shapeGroup",
      "id": "B0CBA8D0-1899-4EFA-8E4F-8084E2504478"
    },
    {
      "class": "shapeGroup",
      "id": "4DA208BF-728B-4BB3-88F2-9C12C6C70207"
    },
    {
      "class": "shapeGroup",
      "id": "4A03D5CE-98D0-47CB-A171-446DEDAF9FA9"
    },
    {
      "class": "text",
      "id": "13E31646-D03D-44ED-B883-410EED458E9D"
    }
  ],
  "name": "new_epic copy 13",
  "nameIsFixed": true,
  "resizingConstraint": 63,
  "resizingType": 0,
  "rotation": 0,
  "shouldBreakMaskChain": false,
  "style": {
    "_class": "style",
    "endDecorationType": 0,
    "miterLimit": 10,
    "startDecorationType": 0
  }
}